<svg width="20" height="20" viewBox="0 0 20 20" fill="none" xmlns="http://www.w3.org/2000/svg">
<mask id="mask0_996_13099" style="mask-type:luminance" maskUnits="userSpaceOnUse" x="2" y="12" width="14" height="7">
<path fill-rule="evenodd" clip-rule="evenodd" d="M2.5 12.0466H15.6283V18.1624H2.5V12.0466Z" fill="white"/>
</mask>
<g mask="url(#mask0_996_13099)">
<path fill-rule="evenodd" clip-rule="evenodd" d="M9.06417 13.2966C5.53833 13.2966 3.75 13.9025 3.75 15.0958C3.75 16.3008 5.53833 16.9125 9.06417 16.9125C12.59 16.9125 14.3783 16.3066 14.3783 15.1141C14.3783 13.9075 12.59 13.2966 9.06417 13.2966ZM9.06417 18.1625C7.44083 18.1625 2.5 18.1625 2.5 15.0958C2.5 12.3625 6.24583 12.0466 9.06417 12.0466C10.6875 12.0466 15.6283 12.0466 15.6283 15.1141C15.6283 17.8466 11.8825 18.1625 9.06417 18.1625Z" fill="#0A0A0A"/>
</g>
<path fill-rule="evenodd" clip-rule="evenodd" d="M9.06416 2.91663C7.31083 2.91663 5.88333 4.34413 5.88333 6.09829C5.88 6.94746 6.20666 7.74329 6.8025 8.34413C7.39916 8.94413 8.19416 9.27663 9.04083 9.27996L9.06416 9.90496V9.27996C10.8183 9.27996 12.2458 7.85246 12.2458 6.09829C12.2458 4.34413 10.8183 2.91663 9.06416 2.91663ZM9.06416 10.53H9.03833C7.85583 10.5258 6.7475 10.0616 5.91666 9.22496C5.085 8.38746 4.62916 7.27579 4.63333 6.09579C4.63333 3.65496 6.62083 1.66663 9.06416 1.66663C11.5083 1.66663 13.4958 3.65496 13.4958 6.09829C13.4958 8.54163 11.5083 10.53 9.06416 10.53Z" fill="#0A0A0A"/>
<g clip-path="url(#clip0_996_13099)">
<path d="M19.3053 6.68053C19.3056 6.63484 19.2968 6.58954 19.2795 6.54723C19.2622 6.50493 19.2368 6.46645 19.2046 6.43401L17.7324 4.96178C17.6999 4.9296 17.6615 4.90414 17.6191 4.88686C17.5768 4.86958 17.5315 4.86083 17.4858 4.86109C17.4401 4.86083 17.3948 4.86958 17.3525 4.88686C17.3102 4.90414 17.2718 4.9296 17.2393 4.96178L16.2567 5.94442L12.4615 9.73956C12.4294 9.77201 12.4039 9.81048 12.3866 9.85279C12.3693 9.89509 12.3606 9.94039 12.3608 9.98609V11.4583C12.3608 11.5504 12.3974 11.6387 12.4625 11.7038C12.5277 11.769 12.616 11.8055 12.7081 11.8055H14.1803C14.2289 11.8082 14.2775 11.8006 14.3229 11.7832C14.3684 11.7659 14.4097 11.7392 14.4442 11.7048L18.2185 7.9097L19.2046 6.94442C19.2363 6.91077 19.2621 6.87204 19.281 6.82984C19.2843 6.80216 19.2843 6.77418 19.281 6.74651C19.2826 6.73034 19.2826 6.71406 19.281 6.6979L19.3053 6.68053ZM14.0379 11.1111H13.0553V10.1285L16.5032 6.68053L17.4858 7.66317L14.0379 11.1111ZM17.9754 7.17359L16.9928 6.19095L17.4858 5.70137L18.465 6.68053L17.9754 7.17359Z" fill="#0A0A0A"/>
</g>
<defs>
<clipPath id="clip0_996_13099">
<rect width="8.33333" height="8.33333" fill="white" transform="translate(11.6665 4.16663)"/>
</clipPath>
</defs>
</svg>
