<svg width="48" height="48" viewBox="0 0 48 48" fill="none" xmlns="http://www.w3.org/2000/svg">
<rect width="48" height="48" rx="8" fill="#F09856"/>
<path d="M36 24C36 29.799 30.627 34.5 24 34.5C22.8115 34.5016 21.6279 34.3473 20.4795 34.041C19.6035 34.485 17.592 35.337 14.208 35.892C13.908 35.94 13.68 35.628 13.7985 35.349C14.3295 34.095 14.8095 32.424 14.9535 30.9C13.116 29.055 12 26.64 12 24C12 18.201 17.373 13.5 24 13.5C30.627 13.5 36 18.201 36 24ZM19.5 24C19.5 23.6022 19.342 23.2206 19.0607 22.9393C18.7794 22.658 18.3978 22.5 18 22.5C17.6022 22.5 17.2206 22.658 16.9393 22.9393C16.658 23.2206 16.5 23.6022 16.5 24C16.5 24.3978 16.658 24.7794 16.9393 25.0607C17.2206 25.342 17.6022 25.5 18 25.5C18.3978 25.5 18.7794 25.342 19.0607 25.0607C19.342 24.7794 19.5 24.3978 19.5 24ZM25.5 24C25.5 23.6022 25.342 23.2206 25.0607 22.9393C24.7794 22.658 24.3978 22.5 24 22.5C23.6022 22.5 23.2206 22.658 22.9393 22.9393C22.658 23.2206 22.5 23.6022 22.5 24C22.5 24.3978 22.658 24.7794 22.9393 25.0607C23.2206 25.342 23.6022 25.5 24 25.5C24.3978 25.5 24.7794 25.342 25.0607 25.0607C25.342 24.7794 25.5 24.3978 25.5 24ZM30 25.5C30.3978 25.5 30.7794 25.342 31.0607 25.0607C31.342 24.7794 31.5 24.3978 31.5 24C31.5 23.6022 31.342 23.2206 31.0607 22.9393C30.7794 22.658 30.3978 22.5 30 22.5C29.6022 22.5 29.2206 22.658 28.9393 22.9393C28.658 23.2206 28.5 23.6022 28.5 24C28.5 24.3978 28.658 24.7794 28.9393 25.0607C29.2206 25.342 29.6022 25.5 30 25.5Z" fill="white"/>
</svg>
